100
22 1310 1290 2848 5926 1737 583 2264 859 3244 9517 7624 27 69 120 138 8 355 126 468 554 253 139 1495 236 708 155 3477 193 1954 9 485 184 224 148 303 6402 197 356 1173 2818 199 72 3774 28 65 977 389 78 19 7 37 442 3849 867 309 176 62 1888 14 5851 63 371 268 114 74 2402 102 21 15 135 61 6379 164 58 161 501 57 44 229 1070 4226 301 1132 166 299 4869 331 280 3106 2045 426 243 410 211 23 198 82 404 38 5990 5 16 725 30 187 2 476 55 4978 3211 11 158 5554 372 737 5985 3379 4347 5659 96 107 2700 20 22 207 45 240 1434 41 70 252 316 731 869 624 703 121 35 1524 18 3182 17 650 103 843 751 1089 797
94 554 138 5921 725 126 1790 148 69 2120 8 3244 468 948 199 27 900 404 252 28 114 316 107 737 1270 63 9 184 332 290 19 7 5725 155 686 957 1679 135 1812 3053 915 4103 62 224 15 37 14 720 166 11 57 9652 1930 1771 2923 21 5442 709 164 58 197 55 1408 451 103 1168 249 72 158 8835 2639 2744 7003 74 299 2486 16 4364 2402 619 206 23 80 1917 1661 161 5051 1287 6502 18 22 731 1313 1604 402 1506 355 97 125 45 157 3121 8734 2359 218 627 110 800 348 54 2 356 84 20 655 65 1200
23 3244 138 126 27 184 176 355 139 869 253 65 948 120 252 1951 4171 28 2060 107 3700 554 199 193 9 426 19 114 482 8 135 1452 152 131 5659 549 57 329 316 37 58 74 21 1506 35 44 15 2282 410 3839 11 14 82 70 2198 102 7 84 23 725 78 6049 7658 1597 1119 38 4994 62 2579 63 22 69 55 1413 325 2169 145 708 1437 17 2 72 5 3600 61 330 5661 54 20 95 1152 36 6698 2371 7918 310 280 585 9559 7325 60 117 83 524 224 18 164 6 1981 30 1384 6459 2685 968
95 138 2848 554 126 69 725 27 155 148 1679 199 1790 404 8 686 120 3975 2120 737 316 28 968 468 948 9 107 152 37 224 915 3774 5554 5985 62 19 3767 63 58 9365 5442 1270 1089 797 103 65 184 720 7 15 7234 290 119 57 84 164 14 3199 158 5725 299 72 957 451 114 193 131 1812 3053 139 110 61 4103 1756 1387 268 54 140 21 6379 11 73 375 166 3198 329 16 102 18 41 183 9652 45 1930 1597 38 1771 2923 229 55 8094 176 5 161 1408 1124 8992 1168 249 8835 78 70 97 2639 60 206 145 2744 5101 135 2478 7003 1881 2521 22 132 252 6086 2612 7585 583 4247
96 138 2818 1502 7055 120 859 1310 126 8 197 252 28 404 1597 968 554 69 131 63 27 229 2060 9 737 1482 5482 37 72 199 7 2003 14 243 155 145 19 442 1077 193 329 249 1395 1951 211 62 3457 139 303 65 224 1122 58 1714 102 290 82 236 6656 15 30 114 5 1766 148 485 948 74 41 57 1643 7895 2889 123 17 38 23 44 1495 356 2088 184 267 468 11 70 686 7234 285 6337 5381 20 56 54 715 301 22 1384 9832 300 316 268 671 2112 4656 16 119 45 21 1001 73 271 18 609 2 542 156 709 79 6 4288 6459
24 2264 2060 708 138 3756 2591 120 1671 69 184 725 583 27 8 977 1572 126 252 121 236 28 9 139 1954 6698 900 1184 1502 303 155 426 1173 8450 867 19 229 554 859 15 114 37 621 5276 253 78 102 65 1334 3483 3106 61 21 6138 7 1412 58 62 5990 14 7086 145 404 6238 3046 57 940 5333 382 494 355 148 30 23 70 3684 914 482 542 1151 2444 22 7373 5 72 44 103 2120 679 117 8139 309 96 11 20 1119 7548 624 74 299 4148 961 16 164 88 161 2614 5350 585 63 82 193 285 104 671 55 2492 123 871 80 183 6 1429 35 1793 726 73 86 60 38 3563
25 2264 1482 7242 138 1495 176 69 5482 199 27 120 583 252 1610 3483 1667 236 1200 468 6115 37 494 3880 9054 850 19 8 1554 193 3398 3262 249 107 342 7382 1888 301 2685 316 14 1434 9 72 393 164 8243 140 139 28 2106 4397 131 65 1524 15 3196 4724 147 1645 1350 1222 44 35 1174 3139 268 112 166 485 389 84 11 5 9677 3747 3251 21 2 542 7 86 227 8360 3964 82 16 62 1134 23 20 38 178 2587 4100 17 103 88 70 1478 56 83 880 1184 148
97 138 120 69 5381 1077 968 869 6102 8 404 5276 27 4142 126 1737 121 252 63 199 184 28 9 900 1591 72 131 166 65 7 1954 2889 494 468 4301 2780 1263 3102 909 107 152 9691 9305 356 914 197 14 155 1951 78 62 114 158 679 148 329 1434 19 74 482 211 621 9630 249 4266 21 1171 30 873 187 277 1200 135 815 485 6379 671 948 3457 395 7117 1583 510 303 145 37 1122 243 927 11 20 348 58 45 38 1958 2282 15 6082 285 585 84 176 6656 102 2653 566 290 178 3441 6051 146 5 2003 1270 9551 6 236 55 662 1395 61 375 624 56 86 44 879 216 112 54 18 22 229 35 2 140 57 583
26 138 126 8 27 120 554 69 1077 1951 184 139 3110 485 948 2889 63 19 7 37 9 299 5381 797 107 62 72 197 4497 152 28 131 164 187 199 65 158 15 665 114 549 57 5959 332 303 14 21 9927 4807 30 11 145 1584 267 23 1656 1667 585 38 5 70 309 371 44 110 61 6577 55 6369 60 147 1395 193 1019 329 210 4090 45 86 4813 56 20 280 907 4335 1290 1388 6 22 112 79 42 2905 342 18 16 78 372 74 73 5205 13 915 1954 583 2591
98 3097 1671 138 120 2591 155 355 797 121 229 69 859 1958 6656 139 63 28 8 2148 236 915 410 3849 27 37 3457 19 5394 6698 7 494 329 114 2039 252 253 927 3684 9 2478 82 7347 869 126 7677 907 15 725 426 1184 184 14 7753 6201 4148 55 1736 11 5350 7173 1263 1734 44 5 61 249 110 482 23 621 166 30 198 157 56 432 285 999 1090 224 62 20 78 65 102 88 22 21 13 327 16 6018 42 641 374 45 6 1161 147 84 73 74 1006 524 484 103 5295 3142 58 5084 977 41 2717
27 1954 69 2780 197 27 138 176 121 8 28 1495 252 2889 184 139 65 7 164 107 63 9 72 2848 482 443 2591 3774 1671 8761 7624 19 37 15 552 82 867 62 155 815 126 14 21 30 3097 120 1310 135 849 74 70 157 11 45 389 78 35 679 300 57 211 249 5 2700 1395 16 132 44 1412 206 41 54 17 7753 739 119 110 299 84 6 23 97 1385 22 410 60 161 53 20 4962 56 122 646 1434 909 355 395 3389 256 2296 4403 187 859 2060 2076
99 138 1954 120 3110 8 303 27 708 155 6402 224 63 139 69 253 3849 355 5851 7 62 65 37 485 19 1334 135 280 199 309 371 28 78 583 21 299 4869 6604 14 15 74 2478 30 9 1070 554 117 166 72 61 38 4226 410 211 389 7234 867 145 22 252 44 175 187 11 178 3182 3975 5 13 686 45 126 82 97 79 501 16 901 18 267 1153 56 1756 107 549 482 637 55 2 146 7959 20 301 1023 60 531 2153 36 742 118 23 88 5313
28 1263 968 708 9517 5921 155 148 554 138 621 6604 121 69 2076 900 253 8 184 252 5526 126 27 9 164 224 63 1583 1917 2153 329 120 7 309 102 2385 2955 1656 131 1077 14 1643 19 236 57 285 58 914 612 653 197 9894 625 1352 432 709 78 37 720 28 193 198 62 2112 72 8450 468 107 6092 114 199 815 9543 88 2486 4364 2402 15 35 44 316 21 899 909 103 132 74 22 1132 110 5051 123 146 196 65 482 41 20 70 3768 2 1610 484 2659 11 2976 948 1369 61 97 442 268 7408 38 30 836 55 60 383 2371 655 4613 1324 144 82 7672 1200 3923 274 1106 145 1283 2274 751 372
29 138 6604 2955 2153 554 176 1077 1315 252 329 968 442 121 69 9894 120 126 63 290 27 8 139 2700 482 236 28 5661 485 404 6698 9 909 621 164 1495 148 468 62 303 6459 355 19 243 4371 948 1384 224 4656 131 671 1583 1283 57 197 309 751 2513 7 229 5429 2291 152 37 4023 184 44 30 35 8034 268 3441 4895 65 1506 110 5990 114 4881 3158 331 107 1714 78 193 196 899 7850 962 650 58 5621 1766 725 3424 82 2 253 274 285 1587 14 7518 38 330 11 73 21 20 1106 72 84 92 731 2216 74 206 178 655 728 41 112 5 45 55 727 146 594 4266 175 70 15 211 850 4672 13 881 869 4104 161 709
30 968 155 621 2848 5526 468 126 9 148 27 1263 63 1583 1610 8 224 708 121 120 28 7624 164 184 19 253 9517 2112 914 372 102 199 14 625 62 9543 2076 2385 1310 7 131 69 78 107 252 138 948 44 145 61 187 65 37 1917 612 432 110 2274 82 6097 58 595 30 21 20 196 256 88 41 38 8938 55 35 117 112 4514 236 70 15 5 22 992 410 1332 198 135 659 3759 132 11 16 45 23 3502 4801 149 2 97 2955 443 79 517 18 56 176 1173
31 138 554 3097 5921 7624 176 120 69 199 8 1310 126 356 482 27 900 155 28 549 1334 9 621 1734 1958 37 148 7 6656 583 63 468 19 197 193 135 2076 1888 309 62 131 280 14 252 114 797 1387 404 1506 2196 58 65 82 15 78 102 6572 709 229 253 139 72 117 8219 3676 184 164 9933 332 624 132 30 301 21 11 9502 725 1052 243 316 331 268 119 2486 4364 2402 9138 1151 121 4347 1917 16 1106 653 1065 443 1171 44 107 5051 23 20 22 372 236 83 103 8751 157 158 1173 957 2 96 35 5 1528 4787 70 54 41 17 2504 95 735 57 152 26 655 6163 2274 751 869 867
32 176 138 797 5921 120 3975 197 554 184 28 8 709 900 869 9 166 27 3110 859 19 2076 2841 74 69 1334 316 62 121 15 148 63 1583 5448 3160 131 199 30 968 549 426 22 236 88 65 11 152 21 909 7 5 339 55 14 3053 107 38 2825 552 23 37 3849 97 1799 3489 6049 164 624 132 331 96 82 632 57 1572 41 84 61 2526 231 253 16 1412 56 70 119 24 468 35 178 17 2486 404 4364 2402 20 1917 3992 60 995 13 1597 32 5051 625 4390 3398 663 45 451 114 850 155
33 2848 138 3097 708 1954 6656 120 69 176 554 482 8 356 5150 252 9 28 126 65 63 27 1384 193 9933 224 3600 2521 199 102 1387 1365 229 316 7 8751 145 968 131 1917 107 5860 9896 3514 2291 164 4820 432 14 19 2274 751 61 9572 301 74 961 404 4881 299 303 6698 4510 995 609 4953 236 900 57 243 309 112 158 54 5754 3774 3248 665 1583 659 58 1951 979 73 15 44 78 132 62 84 11 21 1807 37 2717 6539 1413 2116 82 9365 5011 289 86 55 187 280 4172 30 45 161 95 178 123 443 3053 1667 2 8853 3639 574 20 88 38 3142 2425 277 990 284 3483 2444 5973 7585
34 138 6604 1290 155 121 2153 2955 126 1077 27 148 4977 1263 9894 8 224 9 442 1737 329 166 909 621 65 28 252 164 482 708 152 285 57 114 1583 1283 78 268 7 751 19 120 14 69 3097 15 404 5850 62 11 4023 73 35 3441 21 63 2713 4895 38 9886 665 22 30 554 44 325 168 198 899 137 45 58 1587 391 290 216 1106 2126 20 968 82 139 16 300 206 175 274 850 680 17 18 41 60 4104 305 79 720 84 594 74 5 70 171 900 2291 1482
35 138 8450 2371 4613 3923 69 120 1604 899 1917 121 316 1122 4551 229 5895 184 9957 1065 7709 686 1440 148 566 1352 253 164 1799 107 72 114 19 476 914 14 9713 552 4164 9 7 646 638 123 158 1959 907 1452 5221 57 28 836 58 8 301 6059 331 7970 140 88 96 3190 27 7718 3839 6644 63 7537 3332 35 5158 310 2148 969 5 235 519 6137 8315 829 454 3126 3977 212 1186 82 8030 1506 157 1260 6962 388 277 763 37 15 4710 131 21 3011 1883 61
36 1290 5526 2591 554 120 797 126 8 709 3497 27 4171 176 6656 751 63 148 107 280 8454 252 549 3483 410 2659 3110 2930 7048 1052 166 482 138 1783 131 9933 193 164 301 158 7 114 624 187 4688 1387 37 1005 199 15 1638 69 859 309 907 9 8751 7081 979 19 72 1168 28 4067 1412 11 152 102 61 2274 58 406 206 356 1027 542 1771 197 35 119 184 332 4881 7069 21 4953 5959 1528 5754 784 4662 5329 805 161 1583 88 1951 30 82 2298 1936 1656 2 163 65 80 26 13 316 20 6767 3718 434 6539 1413 168 1080 778 267 6577 4090 303
37 1737 968 3097 1290 155 176 138 126 8 1482 303 121 1315 69 1089 4347 356 120 28 2513 184 5862 410 152 27 252 1077 485 158 869 166 19 371 919 355 114 15 102 1256 7 404 2713 9 4371 948 5526 236 14 63 65 900 62 2591 395 35 2073 30 20 4102 198 5429 84 88 2430 11 1958 2612 45 56 468 4023 5 72 107 57 61 204 3102 58 38 681 2444 82 1604 229 21 44 797 6577 146 1052 566 41 73 23 74 131 148 268 4864 6 16 22 18 54 725 96 175 776 60 909 125 37 206 78 211 444 243 524 542 7984 3849 859 253 1263
38 3097 1671 138 1334 1958 120 155 6656 355 121 252 176 9138 583 69 3457 253 8 199 356 549 28 126 907 7677 37 725 63 494 1434 1734 1065 229 585 139 1714 999 19 2067 3676 442 426 65 14 9 7776 161 8801 484 268 145 3142 72 147 2717 1106 166 3299 7 432 74 1937 82 112 62 20 735 7253 659 96 125 7373 73 2047 6166 2572 1862 3471 346 7977 662 715 290 8948 21 61 815 2385 131 1606 3332 56 13 30 1549 7975 971 5 3493 54 44 8643 45 309 5472 70 679 5329 4018 4221 23 92 316 496 15 684
39 1671 138 1954 968 583 867 4768 120 5381 554 5921 797 69 355 468 2383 184 2120 7104 7548 8 176 155 252 977 2889 27 5895 3389 126 3470 728 121 166 3182 6082 7 148 624 303 102 2177 1981 9 731 74 2503 280 686 5546 152 896 135 7048 37 299 665 1171 356 8992 914 107 139 14 19 164 30 1930 1520 335 1395 979 5480 114 879 28 193 110 88 267 56 96 57 161 720 329 878 21 224 330 632 566 9611 389 382 595 22 5391 65 38 58 2088 23 1153 15 836 5705 55 61 4430 3493 5 158 1809 79 1152 18 97 1292 5634 426 646 156 62 2138 747 6502 4302 45 268 1723 726 1222
40 138 1502 7055 2818 859 725 69 126 1958 1310 27 1263 184 8 1790 63 2153 869 120 2120 155 468 148 948 686 28 199 316 290 3849 1184 9 37 19 957 404 915 6698 1482 737 107 193 7 797 1270 166 14 158 135 907 249 5725 58 21 7117 1583 243 176 161 3198 57 482 30 16 1679 74 1812 3053 224 299 23 62 114 554 38 4103 164 20 6 11 1714 15 5 621 18 451 375 1395 78 84 720 35 267 211 145 252 41 9652 1930 1771 2923 229 5442 365 501 56 61 73 13 332 42 1643 1408 1597 7895 1168 4421 22 329 4841 8835 119 245 2639 2744 659 7003 1591 5514
41 3975 554 2848 138 69 126 27 2153 725 176 148 1679 797 199 1790 121 28 9 197 2120 404 1572 184 468 737 948 290 224 686 63 62 8 316 37 164 155 3198 135 1408 107 382 19 252 7 158 166 900 5554 5985 65 2780 120 1270 1173 15 152 2076 5442 268 21 145 20 3831 1287 372 451 940 253 5725 38 16 1089 410 57 957 11 58 5200 84 249 1812 1881 3053 915 299 72 54 61 1184 30 3172 119 114 4103 1168 14 103 17 665 110 389 140 45 4142 7347 5 35 873 650 6979 720 23 18 97 73 1756 60 9652 1930 1771 2923 442 196 3613 161 22 41 55 583 5661 4247
42 1263 2848 708 138 3097 9517 155 968 69 1954 1290 2153 121 2076 27 8 126 184 63 5150 224 2291 9 148 432 5860 164 309 78 102 1384 1656 62 252 1643 19 3600 236 681 37 285 7 193 176 57 14 65 1184 1365 487 331 3198 935 74 253 131 1917 243 38 28 9896 44 5973 3514 6092 815 4820 119 1001 30 484 5011 20 145 88 5 35 23 332 9572 665 15 482 1132 1522 4510 41 995 2385 609 158 123 17 132 2659 2976 172 1369 3248 18 21 7408 574 56 82 197 612 13 42 97 161 299 11 61 16 1324 211 7672 720 4023 1495
43 2848 138 176 2060 69 5554 5985 1077 126 8 199 1951 27 1089 797 1876 9 28 65 968 72 197 485 948 37 139 2889 1434 1384 121 1495 6379 5381 6126 3199 686 62 6337 107 737 158 1756 7 19 404 14 63 356 1513 236 7712 152 2612 1131 131 2433 15 9927 4807 148 299 4413 940 665 609 1584 5011 625 3923 2573 187 5150 899 243 268 280 23 1667 4497 583 103 6035 1128 5616 61 3455 252 4609 44 11 20 371 164 6369 82 55 224 3884 1408 5442 1395 8454 249 6057 309 325 21 4813 1572 74 2198 132 653 58 4335 426 30 1510 73 2905 38 1274 1988 216 123 5209 54 585 110 70 331 1256 78 210 6092 5205 747 6 1894 2316 915 6848 9351 184 1958 5661
44 708 1290 138 1263 176 8 69 1954 120 7624 6402 27 63 9 1310 3849 1334 309 5851 28 485 126 1070 2955 139 355 4023 404 389 671 19 4869 14 303 72 301 7 37 211 62 1270 155 3831 2120 78 9886 2371 187 145 331 135 4226 6986 410 595 371 224 2713 65 4977 2076 1132 30 146 243 15 3182 117 356 2700 38 4089 2112 468 44 583 880 253 16 61 5 21 1826 11 370 102 8034 88 41 92 7959 742 256 6 1153 2291 789 1651 587 6452 23 2293 5313 107 20 7594 95 74 236 45 56 907 2 18 5936 55 5621 1017 22 7869 566 199 9502 869
45 138 120 1954 1502 7055 69 2818 8 583 121 27 155 867 126 355 859 1310 309 184 252 28 135 9 37 139 554 6729 193 2120 7 7548 164 74 19 15 330 5921 243 229 145 665 1714 268 114 332 1482 329 303 107 14 62 224 63 3470 61 58 426 2170 82 299 21 6082 78 23 30 131 624 371 11 44 102 57 38 211 199 2177 1981 382 2 20 5 70 16 123 176 1152 117 56 73 18 161 1000 88 110 156 197 83 4 60 8992 280 914 22 72 55 42 708 152
46 708 2848 138 1502 69 1334 1263 8 968 126 166 176 27 199 63 3831 2120 9517 2371 9 139 155 28 583 6986 72 14 102 145 356 2112 309 62 19 2591 74 15 1671 243 107 355 7 485 57 873 103 140 88 22 61 121 6452 148 44 11 5 566 187 30 152 2076 720 164 38 2818 1468 1155 55 20 224 671 484 70 1294 5974 329 1298 5482 249 37 346 21 3299 158 2 196 146 97 204 410 23 84 45 549 1972 280 778 277 1017 80 236 35 18 24 41 17 78 211 859
47 2264 583 27 3106 69 5990 139 8 138 65 229 184 28 236 37 14 224 3514 62 57 9 1434 5182 6930 131 19 78 15 1506 2208 102 484 1495 58 107 309 253 7 4291 23 995 1171 35 4063 114 1521 45 140 1799 5 285 54 17 303 70 158 659 992 56 16 38 517 30 6 3142 55 13 2 3621 346 3448 11 5910 20 90 18 21 1437 587 6684 614 120 22 1702 147 83 480 1307 148 9768 44 8933 9732 155 1502
48 138 404 2060 252 968 3477 69 3684 176 6604 725 27 468 148 184 8 126 1790 224 686 28 9 2120 164 2955 155 199 948 6337 7 2153 236 485 63 37 166 900 197 19 7674 1564 1554 290 58 65 1077 57 14 316 74 583 1384 382 300 158 21 62 114 356 3923 135 1256 249 1283 4103 1270 720 9894 211 330 120 751 4247 549 30 899 70 6126 3767 5725 8454 2359 709 6057 5973 609 15 110 1572 2198 103 1812 84 737 957 329 545 11 82 426 4799 1679 348 92 3053 915 5209 152 4497 161 909 2371 632 554 621 5 1437 41 684 44 56 229 107 78 681 8402 79 55 119 22 198 72 482 451 1093 20 285 3166 121 442 662 342 117 16 97 9652 990 1930 919
49 708 69 1671 1334 2371 63 8 176 28 3831 2120 139 9 126 6986 138 19 166 7 107 907 3097 566 356 2112 37 583 199 27 14 102 15 61 57 6452 145 243 62 5 74 309 21 88 72 158 11 1468 671 96 84 2591 484 140 55 22 211 35 3299 155 20 152 44 146 552 212 80 38 6 13 519 103 231 16 70 496 1482 30 572 45 120 161 17 142 23 137 4301 2 54 778 2359 355 121 6165 2744 859
50 3244 1482 968 69 126 859 120 155 121 184 199 2780 148 485 27 28 8 404 371 19 7 14 7624 301 2433 15 63 65 9 329 900 2292 372 37 140 44 30 61 382 1737 1310 78 4022 11 4178 38 20 1065 57 4273 16 21 1524 58 82 5 198 70 35 23 1376 45 663 84 2229 152 3443 211 138 72 110 17 228 2591 1671 632 96 146 86 267 4188 210 41 240 73 103 1495 137 583 56 112 183 18 6 1225 3097 513 2076 1954 303
51 2818 9365 725 5501 977 3046 197 2826 5659 2148 63 5603 1387 9 6877 5031 371 3923 1225 665 1989 1826 1745 102 1159 1692 2420 268 14 72 329 187 2613 198 2500 1224 1491 74 3708 78 3824 4606 7694 19 426 3826 4946 611 1343 58 4433 155 510 9234 3586 15 749 117 61 30 4532 27 1602 2425 966 121 288 910 1417 23 196 5 519 70 1339 4705 383 1012 5534 45 299 1921 22 1001 8783 44 742 9127 8429 41 159 1242 280 468 138
52 1502 7055 708 1954 120 2818 6402 3849 859 1310 5851 138 485 355 8 4869 63 27 1070 145 4226 410 371 224 309 1482 3182 389 211 253 28 14 9 1153 126 7959 301 37 7 2293 5313 30 78 5936 1132 72 135 7869 139 5 310 38 74 1714 62 1476 117 1401 19 789 193 880 16 2577 229 901 595 303 61 21 41 15 243 1643 4589 1597 7895 23 4089 267 339 3319 299 2721 1395 1651 18 587 65 1591 1017 285 9832 45 56 5069 742 2112 498 2 1023 146 951 397 1853 5555 207 6228
53 138 1077 968 252 404 8 121 69 126 909 184 900 1315 9 27 28 485 65 72 243 468 3102 948 869 62 176 152 131 37 199 494 19 1408 7 158 609 107 1171 873 120 1591 303 8660 114 58 20 927 82 4371 211 78 70 30 15 14 566 63 510 166 355 1256 110 6051 224 4478 1270 9551 6604 681 23 74 1434 524 216 2282 11 1384 55 1495 92 236 5429 583 145 38 21 112 139 41 348 329 44 356 35 79 103 4023 45 6 2976 6126 84 5 56 54 161 534 2 342 13 60 7291 899 155 2060 725 2153
54 2848 138 1495 1263 2153 968 69 708 27 199 176 126 9517 155 797 121 583 468 120 8 5554 5985 193 148 139 65 37 3198 62 28 1089 280 404 621 1184 9 63 14 268 131 737 184 78 3483 2612 309 164 72 2076 19 7 243 1200 2291 442 158 6379 82 9054 331 1476 4500 655 252 4977 3199 197 290 3172 2177 482 44 451 17 88 38 484 1384 1506 1756 224 35 20 7347 624 625 57 4656 728 132 15 140 443 6572 3379 110 549 30 2685 84 329 316 686 330 135 58 119 1434 5011 356 1513 1131 8219 22 2 23 236 5 103 249 16 74 115 166 61 4413 5313 1656 102 940 1001 123 4225 3441 21 137 107 869 54 301 2316 867 485 4247
55 138 1502 6887 1263 900 554 1077 8 968 468 3244 404 69 155 252 199 3774 120 166 27 28 121 126 869 65 9 909 63 5921 708 2112 152 145 1334 3110 107 37 583 485 243 1270 1184 3102 72 1737 7 184 114 566 867 14 193 725 662 609 78 15 57 1495 146 135 117 131 6604 19 187 88 62 681 175 44 176 21 11 158 1171 211 957 873 1591 38 102 22 74 859 2 494 927 1151 443 84 58 82 70 103 342 510 35 55 1294 20 348 41 96 161 1434 13 6051 1587 4478 1408 30 45 56 9551 80 599 650 23 110 189 880 524 316 2153
56 3756 2264 3244 1502 5276 485 184 121 69 27 8 120 148 9 1315 28 138 621 1184 624 8402 948 3110 859 155 1591 7 5526 236 869 968 1954 19 145 135 2371 426 62 126 1334 303 583 65 72 468 58 37 2282 44 867 21 176 252 211 355 63 38 4171 1583 4371 23 914 1476 96 117 15 20 731 4514 199 88 253 2 11 5 30 14 632 22 5429 70 707 57 41 5659 325 8702 443 24 2112 56 183 4023 825 224 83 35 2431 6 9543 90 2120 595 112 13 3 114 17 3057 52 45 2943 725
57 708 3975 176 69 126 27 1334 3831 8 63 139 28 968 243 2120 9 138 62 671 2371 309 404 152 6986 19 145 37 72 566 356 2112 1572 14 484 199 583 797 197 102 38 57 158 30 155 135 249 45 35 1263 107 6452 15 44 5 74 11 7 55 70 131 54 231 56 84 196 117 422 720 13 17 146 120 1468 2 166 16 22 20 2700 21 41 97 187 184 88 211 121 2780 3299 224 1017 236 253 6 572 65 496 659 252 140 9517 148 96 1495
58 138 869 120 69 3106 126 1290 968 121 184 252 8 6604 329 442 303 9 285 909 63 27 155 28 65 2153 1263 3110 859 1954 342 2955 7 299 15 1077 7389 583 1132 88 161 1799 1334 11 4977 426 2741 23 9894 37 187 102 389 867 19 21 355 5546 38 62 70 139 850 175 58 14 206 44 41 22 268 13 1159 35 30 1090 119 158 4317 2 621 1540 18 82 2985 16 148 17 56 720 6486 289 32 1153 144 97 482 703 5 395 3540 92 45 224 4329 4023 371 708
59 2060 725 977 8450 126 554 621 1334 6138 1412 6238 5333 494 27 139 8139 65 28 5350 585 9 671 1429 5643 979 873 252 2187 72 114 243 6335 8138 14 542 1134 1119 1385 58 726 121 1972 253 82 78 2692 8 117 426 21 19 2956 57 769 881 646 914 155 857 1011 762 343 11 746 933 1745 70 2231 1805 6134 231 545 1480 8146 702 216 2980 305 23 123 22 41 61 204 80 6246 536 1566 125 8969 37 684
60 2848 6729 69 176 120 138 121 27 5554 5985 8 148 65 1089 797 708 1756 28 1131 107 139 37 199 9 7 72 355 19 6379 78 3199 164 14 280 126 62 737 389 123 38 9559 158 331 58 103 21 2612 1513 1384 61 152 5 235 4413 410 310 15 940 253 1954 5011 88 82 625 44 268 2573 35 6402 115 110 84 583 238 16 5616 74 2 22 3455 4609 404 54 8450 55 3884 5442 11 122 18 1876 216 60 198 325 30 240 73 3849 20 132 5851 2316 485 2371
61 138 968 3975 1263 69 120 155 708 126 1077 468 9517 404 121 8 1737 252 184 900 27 152 9 72 65 3102 62 869 2976 28 9305 199 494 2076 166 131 909 78 63 1572 253 566 797 193 7 621 1171 873 158 37 1591 609 356 135 146 176 58 114 524 14 38 243 927 342 211 145 348 197 879 15 30 2282 148 103 74 56 5 19 45 20 6051 11 1270 9551 35 662 1256 815 224 21 84 102 1656 389 60 22 583 625 54 3389 55 236 1643 5091 2 41 4478 112 2780 8660 2430 16 720 285 107 88 92 42 23 96 18 1283 9584
62 7624 1310 2076 69 120 8 9502 27 404 1173 126 197 9 164 107 63 1610 148 19 7 1263 1122 28 583 303 1826 650 6668 139 62 135 869 1183 14 5295 155 117 2196 58 138 1106 7117 1583 1070 389 102 625 78 21 72 4982 1958 301 1881 2106 332 92 2785 348 61 4089 2298 131 3363 356 5626 152 5634 112 146 16 6 277 2292 35 552 1283 20 1132 145 132 443 151 23 5395 37 1591 65 97 176 4841 1221 2116 17 11 41 3870 245 195 157 22 919 90 95 147 789 3927 45 255 355
63 138 155 900 8 120 968 184 709 468 2371 9 27 1052 1554 8402 28 7 1283 907 285 148 19 372 164 14 145 135 65 432 37 3248 147 102 78 4497 3412 21 206 4364 30 15 57 329 715 58 2359 44 255 119 92 45 11 2158 16 86 1745 2683 63 5448 41 5 56 2849 342 487 638 139 1256 23 82 38 3642 117 20 370 54 168 6481 131 1303 74 83 330 13 35 395 1290 971 122 22 1236 1495 583 3097 1263 7892 176
64 1737 120 69 9305 8 126 621 63 1384 356 236 27 9 671 166 5091 62 679 28 1283 72 2433 731 193 107 158 19 7 152 211 102 299 37 494 6769 229 57 342 1236 30 114 1290 9584 146 3032 2705 164 11 21 117 14 7837 58 74 15 61 4291 60 3211 38 1296 1745 784 145 140 20 55 6 1671 1930 22 112 13 88 54 79 65 157 23 45 265 16 2298 2126 110 240 5 2 44 451 42 587 348 5253 1482 138
65 155 708 1263 3244 69 138 3975 9517 126 27 968 404 2818 1679 5482 8 1954 120 3767 65 2780 482 224 355 121 9559 9 1384 28 107 131 14 2076 62 72 139 8761 102 253 19 432 2889 82 57 1604 329 468 176 166 1597 8734 1766 11 37 148 849 114 7 1387 229 58 152 356 35 38 2478 252 1881 410 97 135 30 2003 4594 5 103 6979 15 22 132 948 299 45 4288 119 78 3398 54 6459 63 1656 4148 44 815 110 342 17 1643 6222 1324 183 236 157 552 5721 20 21 84 1131 7151 16 70 88 55 18 671 280 4178 2433 4725 9301 2707 429 47 7687 637 5429 9572
66 138 3477 155 252 27 8 404 485 63 229 549 7674 1564 236 166 28 356 65 37 316 9 524 7325 158 3767 684 662 74 5973 14 82 114 61 468 7 301 1437 58 11 681 15 57 375 19 21 23 815 632 135 102 1369 1093 112 161 54 8955 204 1365 119 117 110 443 55 8012 78 5 70 45 4696 382 4347 211 20 13 342 2785 1376 4744 35 84 60 4103 30 2 2139 300 1610 224 29 4403 271 1550 56 44 409 5643 1671
67 1290 2264 138 155 1495 120 27 69 126 1263 404 8 468 3975 3389 65 9 28 554 3767 139 3774 3477 37 583 229 2700 1387 867 252 2060 7 63 1671 1434 102 1679 482 78 107 152 671 485 62 3106 19 58 57 4023 14 176 131 5990 236 193 184 158 9886 15 72 2148 114 23 21 82 30 35 1564 6656 11 224 708 2713 121 309 4977 148 119 70 356 166 751 54 815 1225 199 725 45 103 7674 637 5 524 285 61 681 84 88 18 110 316 13 7537 16 300 92 55 2 574 977 38 60 1506 135 2478 20 1881 6 79 299 147 342 1521 968 303 662 2291 4768 5921
68 554 621 155 5526 968 138 120 8 121 1583 126 2112 184 199 9 63 468 253 37 148 62 236 1502 28 27 914 372 1888 9543 243 69 145 19 107 7055 58 7 356 316 131 1610 14 948 2818 612 5350 176 342 252 15 102 517 117 11 1917 21 135 2274 187 1428 114 2385 65 23 2 725 197 6097 112 229 5661 4347 78 30 84 715 859 82 625 653 5 1310 1395 20 410 5667 8938 6698 4514 41 899 24 61 992 1332 73 44 79 57 6459 659 3759 83 1434 279 38 52 70 3502 424 377 6163 8241 60 193 1384 3591 1495 1714 224 1734 1482
69 708 1671 1334 69 176 1482 8 3831 2120 2371 63 6986 6165 356 2112 583 28 166 873 9 155 977 107 6452 243 145 566 199 62 27 1468 671 2177 6290 3299 152 679 139 37 126 7 309 4342 211 57 19 410 572 907 4301 778 2359 187 3266 1294 15 1757 224 35 659 102 6169 4436 38 3520 146 2744 346 21 4035 14 2085 2100 4276 6 2238 158 6767 88 7827 720 7042 884 11 22 751 117 61 44 5 599 5876 782 249 80 204 84 1877 486 3204 231 142 162 24 3392 1408 72 2448 20 2616 2864 8271
70 6729 2848 3244 3975 3097 138 176 69 1954 1482 554 708 2780 121 126 28 253 184 410 968 5150 120 859 468 1572 797 193 5661 8 372 65 355 485 6698 139 27 1384 4390 3600 6459 9 243 62 148 63 1365 199 2170 145 2433 1756 1917 329 442 5860 2513 9896 3514 2291 404 4820 158 37 2973 1554 44 900 58 19 107 20 57 3831 332 9572 7 102 82 224 135 38 4510 995 14 609 432 316 197 114 4022 487 5 371 132 131 30 330 5990 3248 665 78 671 3158 84 4178 1714 650 299 11 7850 54 74 524 15 112 4273 382 56 23 73 83 103 55 45 6979 2717 216 35 2116 424 1412 2216 41 6718 2229 1312 5011 123 1524 880 236 166 3613 211 228 4266 229 782 187 6304 155
71 3097 968 120 176 1334 69 252 138 2591 404 1671 8 1958 1495 355 442 27 1384 164 229 28 290 197 4656 199 309 184 121 63 37 2291 356 65 4881 139 7 114 329 19 268 549 9138 583 1766 3424 131 243 72 2700 859 655 158 728 62 30 9 1506 301 331 61 709 2212 330 15 9957 715 21 3684 523 316 1721 82 11 659 5 1434 2 112 54 84 253 609 1065 2684 147 439 881 92 962 161 41 480 249 585 74 80 70 20 17 2240 1714 2067 554 22 4148 6656 196 335 484 55 45 57 3676 13 73 110 7776 624 482
72 138 1384 69 121 404 252 1077 236 356 8 65 708 1434 968 27 1495 2433 948 176 139 9559 243 72 126 653 63 9 1876 37 355 120 7712 7 1951 1408 199 371 114 28 62 900 166 6126 19 148 5150 158 2261 184 187 3457 299 6035 303 1122 485 74 84 2889 4594 6656 6979 38 2003 216 309 3398 468 301 1510 112 20 899 55 3102 224 107 5 152 5381 869 5721 6092 30 54 1894 2 11 253 110 135 5038 1131 14 325 61 442 131 79 45 70 15 21 5205 909 332 342 410 494 2859 73 495 161 23 1958 41 103 3358 671 162 737 1571 1428 6 800 231 7862 1183 290 1324 1171 873 583
0 1263 138 708 176 2076 9517 120 155 968 236 4171 197 9 2841 121 184 797 554 8 27 2899 1583 166 5448 3160 869 316 3457 19 7 709 14 331 909 107 625 63 3053 2825 69 1799 426 9054 624 131 1384 152 2526 164 3489 935 15 30 28 74 38 57 1656 1137 995 1643 309 123 11 655 451 1725 4460 35 720 4040 339 4589 288 6915 97 7013 61 102 5 62 928 17 88 22 422 92 2045 253 6045 45 231 224 96 82 119 410 6092 2978 132 126 815 679 756 1862 1522 663 54 5136 110 42 949 442
73 1495 3774 69 867 2700 120 252 126 9 155 197 28 8 485 65 63 72 1434 1122 27 751 3706 19 6668 8528 74 303 62 184 2060 2244 139 164 37 3826 7 2741 1307 6188 30 107 14 2857 70 140 268 5659 131 21 161 3818 44 176 15 596 11 58 348 117 637 158 23 38 92 114 776 16 1756 82 41 355 1522 524 17 110 178 594 103 45 267 333 968 97 325 1611 112 3 13 2703 1128 22 5 703 32 484 3110 686 859
1 3198 138 1572 176 485 869 8 199 1089 404 6049 252 120 126 5367 121 9 940 797 27 8734 549 28 62 74 19 63 184 3923 1434 309 1384 1495 65 2572 236 37 1597 158 1679 356 15 1388 968 253 7 102 2614 187 299 57 72 4607 1440 4589 2841 30 2902 684 1468 1632 7292 123 731 23 1876 69 484 110 159 815 11 96 7712 9030 38 240 84 197 164 231 301 13 2433 21 166 5515 41 22 5247 280 4703 329 5 55 1583 288 88 135 35 56 290 2140 426 3912 5448 4864 6126 2158 3160 1524 44 5150 396 1290 751 20 243 1352 665 238 14 7269 2076 285 6035 1554 3747 316 4525 371 709 909 1958
2 1495 120 155 3244 69 2264 3774 126 8 27 138 867 184 9 252 65 28 3756 485 139 193 62 102 72 5659 2700 19 2848 7 63 1434 107 355 1756 58 37 554 751 3975 15 268 21 197 14 74 131 303 103 114 23 145 38 158 5 57 44 1502 30 2741 96 164 132 35 148 20 3706 484 11 54 16 6668 82 240 22 637 325 161 56 70 583 8528 17 356 5276 348 83 2 45 178 41 2244 18 156 60 140 12 253 152 1604 737 1737 6049
74 2848 468 621 138 199 5526 126 968 27 148 155 3097 948 28 63 184 9 1583 65 8 316 120 1917 37 19 107 62 7 2112 914 121 69 1954 9543 268 1495 224 102 625 14 145 176 1610 708 252 164 84 21 15 443 112 583 38 82 44 253 131 58 5 2274 2385 5554 6097 595 5985 372 114 110 132 54 4429 659 78 16 6 73 55 20 56 2 8938 35 5150 3759 41 117 11 725 4514 61 23 196 22 30 432 992 80 410 1332 1089 797 446 256 70 79 3502 2955 737 1384
3 3097 1671 138 1334 554 1958 155 120 355 199 121 69 252 356 1888 176 8 6656 725 9138 583 253 28 549 1734 3457 37 19 907 426 4347 229 197 236 63 161 1434 9 126 1065 7 7677 585 299 6163 62 3591 65 1714 2067 14 494 3676 442 112 715 8466 7776 21 1549 82 5350 57 8801 372 139 268 145 999 72 147 78 653 73 1106 15 3299 243 20 5286 404 896 5 1395 74 5582 11 30 899 13 16 3160 735 5848 659 60 44 96 484 125 3142 97 7373 184 6166 58 45 2572 2717 1862 166 9710 346 7977 92 1593 170 70 432 290 612 102 235 815
75 1671 2264 3244 155 3097 69 1482 8 583 6165 356 8734 873 27 28 62 977 679 9 65 139 253 1334 121 252 107 19 224 126 1604 37 2616 63 57 1958 2177 6290 176 3975 229 7 3106 120 5990 4342 355 1506 102 442 410 58 236 138 72 14 21 145 131 3520 1119 82 199 9301 2707 45 3767 54 3676 2238 6767 2448 4834 23 61 751 13 1679 454 15 55 114 30 20 17 35 158 16 8761 112 243 432 782 4820 3204 132 97 4848 342 927 80 119 489 5 9138 56 22 8933 210 29 1522 117 971 8374 919 371 1005 70 3514 166
76 3849 867 2060 708 869 3992 404 900 155 6402 138 27 121 148 968 355 120 126 1954 166 8 9559 65 1384 28 224 4500 4977 3398 139 2177 253 176 5313 69 63 8095 1315 1476 5851 62 107 410 14 485 3379 135 19 3182 549 164 78 184 484 389 37 4594 6979 371 948 4869 61 5 495 382 15 2612 1070 2902 5721 30 2291 7 728 21 737 1131 22 35 114 267 4226 1401 659 301 38 2433 243 290 199 3887 280 2700 517 157 309 1780 3470 3279 236 735 1604 20 117 1327 84 74 23 4364 152 54 55 16 3635 4336 372 82 88 145 11 1324 60 332 110 751 79 58 73 880 115 17 4881 1005 2614
4 1502 3975 7055 2818 120 126 3767 859 1310 155 1679 138 229 404 27 69 28 139 1482 8 2478 1881 1387 131 37 9 62 152 19 671 4178 57 65 78 14 58 7687 637 299 1714 30 193 224 375 432 114 45 243 1643 1597 7895 38 5 890 3420 23 511 18 70 2132 6147 1521 1395 79 82 119 2348 3293 158 102 7275 2791 2431 482 16 285 9832 3033 3769 519 145 147 7 54 15 2112 3348 63 162 742 60 503 110 13 2654 170 135 3692 587 850
5 7624 138 1310 155 1958 1173 120 797 6049 69 3389 3110 3849 2076 199 8 126 977 6698 303 2614 184 28 27 708 468 869 65 859 37 1184 1572 9502 9 3923 63 1334 1263 2148 7 148 19 482 404 252 107 650 621 1495 329 139 62 968 549 135 197 2700 285 4607 1225 78 15 61 164 731 102 14 193 7537 1610 552 35 940 44 1183 145 426 20 157 899 131 21 513 96 7234 2478 566 3467 82 637 11 30 97 249 1826 72 686 290 815 1524 74 1434 6668 751 84 1352 665 121 330 240 5 88 1554 524 22 316 23 41 8080 16 158 253 54 5295 6378 915 125 56 879 4510 4343 112 1734 3266 2196 119 18 132 2 176 4089
77 554 1888 155 725 4347 197 236 199 356 6163 3591 426 1734 8466 69 5350 372 653 243 5286 404 896 229 1395 5582 8 899 3160 5848 299 184 9710 19 1593 612 78 342 331 3884 6745 135 2258 301 114 501 57 2533 7 720 62 161 330 776 1549 8733 2378 273 604 21 58 715 5872 647 123 513 4959 1638 3603 1251 1258 9 8241 1352 112 207 183 11 15 7342 6961 2265 102 204 289 82 3293 1300 4098 1577 2 16 651 8332 7792 403 5 148 1005
78 1502 138 7055 2818 3756 859 1310 2264 126 8 252 9 1482 27 5276 145 1951 184 28 243 1597 3244 285 355 3700 62 65 102 1714 14 120 63 19 58 1452 193 131 1506 21 549 229 23 15 72 6049 1643 961 74 7895 2282 57 69 737 114 1395 485 139 44 1591 731 1184 8402 482 7 9832 38 45 2112 5 70 30 2198 82 135 96 35 7658 11 20 83 211 117 13 4834 4994 2579 197 16 1413 2162 325 17 152 316 342 155 37 2523 29 443 907 56 210 3600 4421 2 42 119 54 121 2088 7307 107 1152 236 797 968 583
6 3244 7624 1310 120 138 176 126 69 27 2076 8 28 148 9 869 63 1502 65 3097 164 3756 280 9502 145 7 139 19 135 62 197 72 193 404 37 1122 1173 58 184 859 78 4171 199 7055 2264 2153 14 82 23 389 1334 2818 2196 20 44 1610 948 632 21 253 61 30 1106 655 5659 96 332 107 41 15 17 157 2 38 131 303 2371 1826 443 3110 554 1183 83 1070 650 6668 112 301 6656 54 35 16 5 13 22 52 18 146 97 348 114 137 95 11 57 132 86 158 1958 5276 3198
7 1315 184 303 355 27 485 8 948 107 9 63 139 4371 1452 28 102 229 236 62 19 5429 121 7 224 166 4023 131 37 65 725 252 176 14 15 356 650 78 371 331 290 21 659 11 35 57 55 58 54 56 74 2169 6 92 23 4848 2744 681 45 288 2 38 20 484 1704 103 82 2768 90 13 73 1027 382 5 30 1762 1959 17 44 61 524 60 329 611 25 461 36 2264
79 2848 138 1671 485 1315 355 8 1482 27 303 224 69 63 371 121 4371 6165 948 199 9 28 410 139 62 19 5429 107 873 681 184 7 229 120 4023 72 679 155 782 977 372 176 8450 57 164 145 37 14 725 61 166 21 708 476 211 74 131 78 1954 329 102 5 6402 331 88 2177 6290 332 968 389 236 15 157 35 7584 2371 82 4848 909 1452 1734 290 3071 55 4613 880 2744 4281 58 3923 140 4342 20 65 152 5350 9514 238 11 3849 119 44 22 2983 23 187 110 13 850 112 135 1959 240 9086 2019 6087 301 2533 60 538 1896 5851 16 8978 123 45 1604 5773 80 5069 999 583
80 138 968 69 120 126 3106 869 3975 1572 184 2060 303 28 442 404 121 8 65 252 27 3244 63 426 176 131 197 371 9 224 329 653 37 139 686 6337 102 389 14 62 20 7 30 7389 103 15 112 1153 1799 158 82 11 285 61 2780 17 2741 382 19 5 41 58 23 123 54 3923 38 5546 299 44 70 797 4859 81 45 84 1132 1159 74 1256 1090 187 88 1482 2 6126 206 422 72 4317 8454 6057 95 609 342 136 86 35 348 1540 18 2198 148 708 1173 585 5209 372
8 1495 3774 126 867 155 485 3389 2700 3198 120 1572 199 252 468 1434 2148 63 27 69 1089 404 65 28 1225 121 139 815 9 7537 869 751 3706 5367 72 8 7 6668 193 899 3467 37 268 8528 484 303 8734 2244 135 524 8080 2741 164 1287 240 107 2857 62 5659 4510 650 158 74 1734 3266 280 3818 30 285 552 5313 549 637 290 102 487 131 15 2976 184 35 21 197 1506 8215 84 249 2572 776 110 1756 1597 348 574 178 54 1679 355 1522 7915 16 4554 57 1388 253 11 78 4885 5751 70 1365 147 45 594 23 596 3692 88 83 940 53 7033 41 1440 38 96 513 92 161 2902 709 1290
9 138 468 69 6729 554 126 725 184 8 27 9 1790 28 2120 63 148 164 19 948 290 7 166 199 731 62 135 404 120 114 176 252 686 37 158 737 957 720 58 72 1270 316 155 15 21 84 110 38 5725 16 2359 249 74 11 14 121 196 56 330 1679 1812 3053 915 2955 107 382 57 5 4103 119 299 140 70 55 224 574 206 2 161 1287 45 501 1122 30 103 9652 1930 13 1771 22 2923 23 157 97 5442 31 4390 73 6 48 183
81 138 554 120 155 69 8 1671 27 148 9 2848 63 1737 193 28 19 355 126 3097 329 65 74 37 114 1263 72 102 152 14 662 869 7234 7 5921 316 131 78 372 11 15 211 268 9305 22 21 300 57 58 62 166 5 1387 82 1384 7117 1583 38 23 8094 121 103 8992 342 277 621 1958 44 140 957 145 16 2088 60 110 451 61 737 84 5091 356 147 41 119 1564 2 35 20 30 132 56 3110 196 859 13 31 3441 900 36 3 4841 2185 9039 708 6656 1334 6769 9584
10 5926 2848 138 1737 859 176 120 3477 468 126 8 27 139 69 28 9 72 19 253 148 63 184 7 131 199 482 65 114 3244 356 4978 37 197 193 355 14 78 236 211 135 268 624 15 187 372 57 329 243 62 6379 61 58 290 501 1524 23 82 1667 38 5 44 224 299 957 638 476 22 1132 1395 909 152 3071 41 20 389 309 30 86 21 55 161 2 2872 303 123 1483 849 9053 4430 371 4317 739 17 110 6 9086 679 681 850 18 332 70 1275 4090 35 80 429 346 2088 3635 513 1506
82 138 1671 3244 968 120 3097 155 1737 621 869 126 184 1077 252 468 8 404 69 199 9305 900 494 27 121 9 914 166 6656 28 3102 63 948 4171 253 355 72 131 909 37 152 114 65 2282 7 5526 58 145 19 193 5091 662 74 1171 873 1591 3457 62 78 229 107 625 61 5659 356 135 139 243 927 426 176 348 1283 14 524 82 566 21 6051 158 38 55 20 1270 9551 671 389 342 96 110 7677 5 102 56 583 146 161 725 1583 84 2 4478 54 22 30 41 8660 2976 6769 44 211 841 235 11 277 36 15 1734 60 103 52 23 164 7291 395 1294 9584
11 120 69 8 139 28 121 148 63 65 236 356 404 303 9 199 3457 1122 224 72 19 197 184 7 371 6656 37 2003 737 252 671 316 653 131 290 442 102 229 14 3182 61 74 15 301 30 138 650 78 5 21 187 23 57 38 41 11 84 117 55 2261 542 482 267 22 3975 1183 112 60 20 2614 3591 2 6 206 79 24 216 17 4 16 45 54 161 659 432 178 123 825 73 2205 3239 249 709 2591 1671 2060 554
83 3244 859 69 120 1482 126 2780 27 968 199 3975 28 485 184 121 148 155 63 404 8 372 65 19 138 3110 371 37 2433 4178 78 9 72 15 900 7 1065 84 11 554 5 38 30 131 14 301 4022 329 4273 140 103 145 23 55 382 57 112 797 20 35 17 21 210 152 45 16 70 663 44 2229 1524 632 2 228 60 534 117 82 61 56 13 267 4188 58 132 92 54 41 5442 12 1376 1225 211 2591 1671 1495
84 1737 2264 621 69 120 8 138 27 356 9305 236 176 126 9 229 28 1283 3097 968 554 63 7 5091 102 114 164 4291 19 65 37 58 135 57 78 15 145 155 6049 583 166 62 14 107 74 158 671 21 468 900 299 708 1173 1236 123 193 342 1745 184 30 72 3106 482 204 11 4347 117 290 5990 6769 1482 5276 86 20 1572 5 140 2 54 6656 2126 38 56 83 23 22 112 118 61 16 9047 5582 9584 2705 157 103 348 494 24 1384 1089 44 7908 1888 60 1541 1258 17 88 7837 152 390 45 709 3211 2513
12 1502 554 3756 1310 2264 138 155 120 708 69 2371 1077 121 8 621 176 27 1334 9 126 5526 5276 968 1591 63 28 184 468 65 3483 148 7929 166 2112 252 3110 1263 62 859 869 2757 5381 253 1583 7 72 199 290 19 4500 1476 624 4977 114 2177 37 145 117 243 135 2148 316 14 139 58 485 662 1184 731 3379 8402 914 280 2153 23 2 15 659 9543 82 21 44 3831 88 2120 78 728 5313 74 1850 2116 224 5 22 187 8707 196 20 348 56 164 158 595 102 782 11 583 6986 140 1610 157 300 948 2159 35 3635 55 38 2612 3818 152 137 303 107 632 131 61 992 612 18 715 231 2902 161 24 867 346 83 236 2291 2076
85 6729 2848 138 176 355 69 8 121 120 184 193 1756 139 468 4390 27 253 229 410 2170 187 158 78 19 166 9 1554 4102 28 62 909 65 3071 330 7 14 371 524 123 332 224 1604 74 9086 679 681 850 15 609 114 2973 372 21 356 58 152 199 6718 1312 82 88 5 7984 715 1667 1506 389 1324 1398 23 4421 164 37 157 1222 7401 836 44 38 56 552 5349 329 4985 18 513 72 8703 583 2562 4281 6234 22 238 95 1388 1052 4609 4962 3410 55 2950 476 3158 6304 1106 61 432 429 2533 510 11 31 73 2088 1412 236 442
21 2264 2848 176 1482 7242 69 120 252 8 27 5482 583 107 199 28 1554 797 9 37 494 164 126 19 21 14 7 15 342 236 72 74 63 44 78 389 1350 1610 131 5554 249 62 850 5985 11 6115 35 3880 267 96 30 566 103 70 56 166 38 88 114 82 4247 1089 6 1667 73 13 20 132 3398 3262 240 1222 158 17 2 5 79 16 7382 1888 18 207 147 139 119 121 54 280 538 84 513 55 45 8243 2106 4397 3849
13 2264 1482 138 7242 176 126 1951 252 5482 27 3700 1452 107 184 69 8 355 549 2198 482 249 131 7658 120 1597 1610 4994 2579 1413 9 152 1506 236 6115 494 3600 139 3880 145 1152 850 1554 2282 7918 7325 21 37 524 19 316 1981 3839 1667 15 199 28 70 393 3398 35 3262 14 4864 342 45 8116 325 7382 1888 114 4336 611 4350 11 375 3284 2169 443 74 2142 164 8243 5336 44 57 158 82 8802 135 1959 1967 909 2106 4397 13 197 1524 6 240 6644 915 83 65 572 72 2 3196 56 17 6684 187 9888 245 1271 3706 23 1350 1222
86 138 1502 7055 708 120 2818 8 859 1310 968 199 252 63 9 27 485 126 1334 69 303 28 145 193 243 1482 14 139 37 62 2112 7 131 229 72 404 1954 121 869 19 900 155 6402 152 737 211 78 74 21 355 356 117 1591 30 15 285 1077 135 38 961 102 371 3849 907 176 1714 11 1395 45 65 58 57 5851 2 61 5 249 41 22 16 44 164 6698 184 35 20 96 236 224 3831 1643 410 2120 1597 7895 18 23 13 24 166 2371 277 1734 6 146 300 348 187 583 1601 178 1153 88 231 671 107 161 5773 6986 3110 1468 267 309 1263 3102
14 6604 2153 121 138 2955 148 1077 252 442 120 303 9894 708 355 224 482 290 404 948 1315 9559 27 65 1384 909 69 621 329 28 63 139 8 126 3457 1122 236 9 1583 1283 7 751 6656 2003 485 356 152 5850 166 184 199 229 4594 6979 19 164 3441 78 35 4895 3398 74 4371 325 899 114 671 107 650 73 737 5721 84 30 285 1587 57 253 1131 44 1106 38 14 653 2433 131 11 410 110 5429 850 62 82 58 45 4104 185 720 21 825 22 2 102 4023 371 2614 3591 20 216 1324 37 97 3768 79 503 659 5 36 175 261 245 70 161 176 990 3046 1524 725
15 138 968 69 1290 126 8 27 554 120 1263 63 9 155 3110 3774 1597 28 725 356 7 65 197 19 404 107 9365 686 199 164 316 468 131 329 14 7624 193 102 3244 139 224 145 72 301 166 11 309 243 915 62 58 21 3389 15 37 1310 3198 797 5959 92 1495 331 229 187 303 54 389 161 74 20 574 61 16 45 84 1656 957 78 5101 1734 2521 23 2818 103 280 4023 252 119 6086 737 720 5 112 38 6577 17 114 97 132 211 18 561 5482 57 41 44 1790 22 2 290 206 4090 1270 6 55 178 9886 184 253 4810 1388 2120 907 7585 2700 948 708
87 2848 138 176 8 120 708 797 1334 166 69 3097 197 121 909 27 63 2841 19 583 28 9 62 184 152 107 236 199 355 554 316 74 37 1583 15 5448 3160 14 2076 869 442 709 7 139 371 3110 72 356 21 3053 2825 1799 426 30 5 624 96 2371 3831 2120 82 1862 38 2526 61 56 88 20 57 92 3071 13 3489 11 679 70 2 35 22 41 1958 119 6986 995 632 123 625 36 187 231 207 451 224 331 1725 4460 9086 299 97 2334 681 850 45 4040 4589 715 26 6915 18 2112 5959 9138
88 869 120 1263 155 3244 7117 1583 27 1958 8 69 126 554 4841 63 1591 355 193 19 7 9 4171 4500 164 72 914 290 135 5546 138 166 145 21 329 957 131 7727 74 211 14 5668 356 907 9593 161 510 78 28 316 5778 38 92 1027 2316 35 96 11 57 1223 15 1571 1468 114 2899 7777 147 3110 61 58 6831 6 928 42 146 95 879 659 23 210 90 224 3457 44 2 86 152 20 17 595 1627 22 60 9957 117 25 216 5 1384
16 1315 485 948 621 303 5526 184 4371 968 355 5429 63 155 4023 176 1583 28 121 725 9 107 659 252 2112 914 148 468 131 4848 102 2744 9543 27 290 229 681 37 224 19 7 120 62 8 65 1610 999 9225 331 2983 1452 236 371 211 1296 8660 3054 332 253 199 1917 2274 880 2385 139 288 6097 372 1754 58 650 14 78 145 73 382 625 110 20 82 329 256 8938 5069 112 56 4514 1704 1959 992 1027 11 30 410 1332 1985 170 54 35 55 3759 461 167 393 23 3502 36 6 5 1762 38 398 356 126
89 138 867 583 1954 126 252 155 69 27 120 199 139 8 2120 7548 121 303 1495 9 268 184 28 3470 164 485 37 6082 624 355 102 2177 1981 14 21 914 161 7 330 107 74 140 11 15 152 665 58 178 19 82 2060 23 280 8992 57 3774 1307 70 114 426 16 22 110 636 44 5895 135 30 61 646 96 78 382 38 35 240 329 720 6 224 5 333 88 436 41 17 80 24 79 267 857 60 87 1809 1152 725 1434 968 9514
17 138 6049 176 69 731 797 199 3923 1077 28 63 968 9 2614 252 4607 1951 19 665 65 184 940 485 126 948 2889 62 329 72 1667 1524 751 1352 285 1554 8 131 5381 2955 6378 139 879 4343 1395 178 510 44 30 5893 70 23 37 7 2296 55 102 5 549 346 86 637 96 9927 38 8015 21 4807 15 74 1584 5404 197 114 2700 4497 3977 468 27 494 164 210 20 1270 4063 1591 536 2145 110 16 79 356 6369 159 2072 461 4167 257 35 42 61 60 4813 583 78 22 4335 8034 339 2905
90 138 155 3244 4171 120 1290 27 554 8 184 2899 655 1052 9 3457 900 2371 7 2153 1263 19 9054 229 139 1384 331 309 135 14 148 968 57 28 330 65 158 709 145 410 102 176 107 679 21 37 1476 164 1452 63 907 72 1554 35 96 15 8402 140 38 1809 69 44 5 1283 88 131 869 23 78 285 646 3977 92 1223 4023 4829 3198 8450 55 61 720 17 11 147 42 83 468 90 60 424 9886 210 6 4329 137 2212 896 86 157 16 121 95 3248 372 18 54 3299
18 708 138 1334 176 356 8 3831 2120 69 2371 120 583 6986 355 4102 5381 2112 554 152 1604 37 63 139 27 720 6452 9 243 7984 566 199 158 879 121 187 102 211 19 166 14 1468 7 671 184 8703 15 62 56 3299 28 1052 3410 135 5 204 3158 126 229 309 74 145 496 439 609 253 231 346 1756 6787 35 96 907 389 4301 252 1298 728 11 2359 23 22 1256 778 38 7557 161 3266 1294 1017 18 1757 193 6 146 2 659 6169 107 4436 390 585 21 280 731 117 2744 572 587 4035 2085 1222 2100 88 55 84 2651 7827 686 1171
92 3097 176 120 1958 1334 69 8 356 121 316 27 355 9 1714 253 63 9138 583 549 442 19 28 290 37 72 252 299 74 1737 62 199 57 30 138 7 14 58 1434 1065 145 659 585 11 21 554 907 2067 20 38 715 3676 1862 65 22 7776 42 132 86 97 112 2 206 15 92 8801 277 161 268 13 56 60 1106 45 611 23 3299 210 5 147 18 9305 35 41 54 2334 348 24 82 1263 346 869 5661 7117
91 3244 138 869 120 2591 1671 4171 184 948 126 5659 176 139 164 426 27 193 253 199 859 2492 7 1437 114 63 19 2371 663 3684 2685 61 28 389 2741 1287 1016 1691 355 1221 135 501 4148 2282 9127 74 1119 843 330 78 211 57 2871 655 84 228 15 881 21 72 4962 55 70 121 2477 97 161 327 880 3066 280 131 30 5 2 962 6018 1070 224 44 22 410 60 69 5664 4609 2905 38 5295 4081 644 17 96 58 6 1457 841 42 374 9167 2513 148
19 2264 5926 1737 708 3244 583 859 69 3477 8 3106 5990 236 253 27 155 356 468 138 9 120 65 148 139 355 126 303 404 9559 1384 184 28 1524 6698 19 482 243 900 252 309 3514 14 37 114 102 4978 5182 1799 1506 6930 1604 2208 107 940 3046 8734 624 4291 995 62 78 224 764 6379 1171 61 3483 961 4063 15 290 57 55 58 285 4594 11 6979 1132 948 72 3398 229 23 121 1119 35 346 30 198 38 7 63 44 3142 299 5721 2872 16 277 480 131 20 21 3621 1434 3448 1131 2444 8933 135 5910 22 849 9053 82 4430 599 484 54 4317 197 9301 1437 2707 957 5 1521 679 45 2433 80 410 2 409 298 707 4090 9768 8761 211 4820 1572 176
20 2153 176 155 148 3198 8 184 27 1290 1052 69 199 1184 907 3172 7347 63 686 193 655 57 121 19 7 442 3441 4225 135 9 1476 280 158 37 9519 332 74 5973 62 487 78 28 595 15 21 140 249 1256 145 14 6373 56 935 41 16 117 152 210 161 30 632 82 60 331 44 3052 5 5526 23 61 243 2150 2591 118 45 6362 1027 112 17 119 2047 1522 6 125 561 372 35 4408 38 5514 3286 20 97 26 92 1768 482 138
93 1290 138 126 1951 554 1077 5526 2591 3110 8 485 27 948 120 2889 797 107 549 197 63 5381 139 184 69 152 131 199 3700 5959 187 709 3497 114 4171 145 28 1656 1452 72 19 9927 252 4807 7 1584 6577 15 148 4090 158 1667 4497 585 915 1388 1152 65 6369 1395 249 8454 4813 37 4335 355 299 62 3158 2905 2198 3483 482 410 303 253 2659 193 166 21 11 7658 2930 1850 1597 280 267 7048 4994 2579 1413 1052 9 9351 56 70 30 3600 8152 332 1506 406 23 2809 3540 309 14 371 824 665 1429 6 1155 60 494 57 55 907 624 102 74 164 1330 44 4688 45 2205 5 751 36 38 1005 35 3532 372 316 2282 1638 7918 310 7325 859 1862 9542 725
